{
	"info": {
		"_postman_id": "e863efd9-bd1e-455c-afb0-2b0b3196359a",
		"name": "Cuentas Cliente",
		"schema": "https://schema.getpostman.com/json/collection/v2.1.0/collection.json"
	},
	"item": [
		{
			"name": "Obtener Cuentas de un Cliente",
			"request": {
				"method": "GET",
				"header": [],
				"url": {
					"raw": "http://localhost:9000/api/v1/clientes/{{documentoCliente}}/cuentas/",
					"protocol": "http",
					"host": [
						"localhost"
					],
					"port": "9000",
					"path": [
						"api",
						"v1",
						"clientes",
						"{{documentoCliente}}",
						"cuentas",
						""
					]
				}
			},
			"response": []
		},
		{
			"name": "Obtener Cuentas Tal del Clinete Tal",
			"request": {
				"method": "GET",
				"header": [],
				"url": {
					"raw": "http://localhost:9000/api/v1/clientes/{{documentoCliente}}/cuentas/{{numeroCuenta}}",
					"protocol": "http",
					"host": [
						"localhost"
					],
					"port": "9000",
					"path": [
						"api",
						"v1",
						"clientes",
						"{{documentoCliente}}",
						"cuentas",
						"{{numeroCuenta}}"
					]
				}
			},
			"response": []
		},
		{
			"name": "Obtener Cuentas Tal del Clinete Tal Copy",
			"request": {
				"method": "DELETE",
				"header": [],
				"url": {
					"raw": "http://localhost:9000/api/v1/clientes/{{documentoCliente}}/cuentas/{{numeroCuenta}}",
					"protocol": "http",
					"host": [
						"localhost"
					],
					"port": "9000",
					"path": [
						"api",
						"v1",
						"clientes",
						"{{documentoCliente}}",
						"cuentas",
						"{{numeroCuenta}}"
					]
				}
			},
			"response": []
		},
		{
			"name": "Agregar Cuenta al Cliente Tal",
			"request": {
				"method": "POST",
				"header": [],
				"body": {
					"mode": "raw",
					"raw": "{\n    \"codigoCuenta\": {{numeroCuenta}}\n}\n",
					"options": {
						"raw": {
							"language": "json"
						}
					}
				},
				"url": {
					"raw": "http://localhost:9000/api/v1/clientes/{{documentoCliente}}/cuentas",
					"protocol": "http",
					"host": [
						"localhost"
					],
					"port": "9000",
					"path": [
						"api",
						"v1",
						"clientes",
						"{{documentoCliente}}",
						"cuentas"
					]
				}
			},
			"response": []
		}
	]
}